…
## Process the results

``` r
load("../section_4/results_popweighted/results_NZ_v_u_fixed.RData")
results <- process_results(data_foranalysis = data_foranalysis,
                MI_models = MI_models,
                full_timeseries = FALSE,
                adj = FALSE)
```

## Plot the results

### Ascertainment probability

    ## # A tibble: 71 × 28
    ##    earliest_week_start_date dow       y earliest_week_end_date dow2  ratio_cases
    ##    <date>                   <ord> <dbl> <date>                 <ord>       <dbl>
    ##  1 2021-11-14               Sun    1327 2021-11-20             Sat         1.11 
    ##  2 2021-11-21               Sun    1269 2021-11-27             Sat         0.956
    ##  3 2021-11-28               Sun     917 2021-12-04             Sat         0.723
    ##  4 2021-12-05               Sun     684 2021-12-11             Sat         0.746
    ##  5 2021-12-12               Sun     539 2021-12-18             Sat         0.788
    ##  6 2021-12-19               Sun     410 2021-12-25             Sat         0.761
    ##  7 2021-12-26               Sun     395 2022-01-01             Sat         0.963
    ##  8 2022-01-02               Sun     407 2022-01-08             Sat         1.03 
    ##  9 2022-01-09               Sun     428 2022-01-15             Sat         1.05 
    ## 10 2022-01-16               Sun     465 2022-01-22             Sat         1.09 
    ## # ℹ 61 more rows
    ## # ℹ 22 more variables: index_start <int>, Y0 <dbl>, ratio_v_u <dbl>,
    ## #   ratio_v_u_fixed <dbl>, row_id <int>, p_med <dbl>, p_upr <dbl>, p_lwr <dbl>,
    ## #   z_med <dbl>, z_upr <dbl>, z_lwr <dbl>, y_med <dbl>, y_upr <dbl>,
    ## #   y_lwr <dbl>, z_cumsum_noadj_med <dbl>, z_cumsum_noadj_upr <dbl>,
    ## #   z_cumsum_noadj_lwr <dbl>, z_cumsum_noadj_delta_med <dbl>,
    ## #   z_cumsum_noadj_delta_upr <dbl>, z_cumsum_noadj_delta_lwr <dbl>, …
…
